gene_id	Paper ID	gene id	LOC	Orthogroup	Ss4R duplicate pair	Included in NanoString CodeSet?	JTK cycle adjPvalue OT LD	JTK cycle adjPvalue OT LL	JTK cycle adjPvalue OT DD	JTK cycle adjPvalue SV LD	JTK cycle adjPvalue SV LL	JTK cycle adjPvalue SV DD	JTK cycle adjPvalue Gill LD	JTK cycle adjPvalue Gill LL	JTK cycle adjPvalue Gill DD	Photoperiod Analysis (EdgeR)	Sea Water Challenge Analysis (EdgeR)	Non-linear regression OT LDLL	Non-linear regression OT LDDD	Non-linear regression SV LDLL	Non-linear regression SV LDDD	Non-linear regression Gill LDLL	Non-linear regression Gill LDDD	Drer	Mmus	drer_desc	drer_hgnc	mmus_desc	mmus_hgnc
100136378	Nr1d2-Ch5	gene11900:100136378	100136378	OG1v0010710	Nr1d2-Ch2	Yes	>0.05	-	-	>0.05	-	-	>0.05	-	-	7.8955870000000008E-3	4.4073300000000003E-9	0.38740000000000002	0.99829999999999997	0.99550000000000005	0.99960000000000004	0.99970000000000003	0.97660000000000002	ENSDARG00000003820_Drer	NA	nuclear receptor subfamily 1, group D, member 2a [Source:ZFIN;Acc:ZDB-GENE-040504-1]		NA	NA
100195355	CKIe-Ch6	gene13968:100195355	100195355	OG1v0000277	CKIe-Ch3	Yes	>0.05	-	-	>0.05	-	-	>0.05	-	-	0.68950049400000002	0.31158353	0.96799999999999997	>0,9999	0.99929999999999997	>0,9999	0.83779999999999999	0.97160000000000002	ENSDARG00000045150_Drer	ENSMUSG00000022433_Mmus	casein kinase 1, epsilon [Source:ZFIN;Acc:ZDB-GENE-030131-7873]		casein kinase 1, epsilon [Source:MGI Symbol;Acc:MGI:1351660]	
100301980	Per2-Ch14	gene30097:100301980	100301980	OG1v0003904	Per2-Ch3	Yes	3.6749493563089401E-3	>0.05	>0.05	1.2174959938911E-2	>0.05	>0.05	>0.05	-	-	3.5904699999999998E-4	6.5508413000000001E-2	5.57E-2	0.1338	0.6724	0.98229999999999995	0.42670000000000002	0.32929999999999998	ENSDARG00000034503_Drer	ENSMUSG00000055866_Mmus	period circadian clock 2 [Source:ZFIN;Acc:ZDB-GENE-011220-2]		period circadian clock 2 [Source:MGI Symbol;Acc:MGI:1195265]	
100306859	Tef-Ch1	gene1465:100306859	100306859	OG1v0001103	Tef-Ch28	Yes	>0.05	-	-	>0.05	-	-	>0.05	-	-	2.5692409999999999E-3	0.190320294	0.9	0.94689999999999996	0.93189999999999995	0.98480000000000001	0.96209999999999996	0.4239	ENSDARG00000039117_Drer	ENSMUSG00000022389_Mmus	TEF transcription factor, PAR bZIP family member a [Source:ZFIN;Acc:ZDB-GENE-990415-264]		thyrotroph embryonic factor [Source:MGI Symbol;Acc:MGI:98663]	
100380463	Hlf-Ch3	gene7849:100380463	100380463	OG1v0003243	Hlf-Ch6	No	-	-	-	-	-	-	-	-	-	3.1300000000000001E-6	4.7218982999999999E-2	-	-	-	-	-	-	ENSDARG00000074752_Drer	ENSMUSG00000003949_Mmus	HLF transcription factor, PAR bZIP family member a [Source:ZFIN;Acc:ZDB-GENE-061013-159]		hepatic leukemia factor [Source:MGI Symbol;Acc:MGI:96108]	
106560272	Clock-Ch10	gene21090:106560272	106560272	OG1v0000681	Clock-Ch23	Yes	>0.05	-	-	>0.05	-	-	3.4841208999999998E-2	>0.05	1.9906947875304001E-2	1.3317997999999999E-2	2.2550476999999999E-2	0.67869999999999997	0.54710000000000003	0.3785	0.72689999999999999	0.87570000000000003	0.87329999999999997	ENSDARG00000011703_Drer	ENSMUSG00000029238_Mmus	clock circadian regulator a [Source:ZFIN;Acc:ZDB-GENE-990630-14]		circadian locomotor output cycles kaput [Source:MGI Symbol;Acc:MGI:99698]	
106561150	Rora-Ch10	gene21978:106561150	106561150	OG1v0003721	Rora-Ch16	Yes	>0.05	-	-	>0.05	-	-	1.0665365E-2	>0.05	>0.05	1.1600000000000001E-7	4.6953499999999998E-4	0.1235	0.47949999999999998	0.7107	0.97409999999999997	0.39589999999999997	0.38650000000000001	ENSDARG00000031768_Drer	ENSMUSG00000032238_Mmus	RAR-related orphan receptor A, paralog a [Source:NCBI gene;Acc:564951]		RAR-related orphan receptor alpha [Source:MGI Symbol;Acc:MGI:104661]	
106561407	Cry1-Ch10	gene22221:106561407	106561407	OG1v0000304	Cry1-Ch16	Yes	>0.05	5.3301487261571299E-3	>0.05	>0.05	-	-	>0.05	-	-	3.9451490000000002E-3	0.32781240900000003	5.91E-2	2.1499999999999998E-2	0.99829999999999997	0.96009999999999995	0.87329999999999997	0.99019999999999997	ENSDARG00000011583_Drer	ENSMUSG00000020038_Mmus	cryptochrome circadian regulator 1b [Source:ZFIN;Acc:ZDB-GENE-010426-3]		cryptochrome 1 (photolyase-like) [Source:MGI Symbol;Acc:MGI:1270841]	
106561455	Arntl1-Ch10	gene22295:106561455	106561455	OG1v0002849	Arntl1-Ch16	Yes	1.44621770532003E-4	3.71463344953366E-3	1.15014916222899E-4	>0.05	-	-	1.7445848999999999E-2	3.5940316030258303E-2	>0.05	0.34334779599999998	0.64027659999999997	2.8999999999999998E-3	0.54730000000000001	0.82340000000000002	0.84230000000000005	0.503	0.66100000000000003	ENSDARG00000006791_Drer	ENSMUSG00000055116_Mmus	aryl hydrocarbon receptor nuclear translocator-like 1a [Source:ZFIN;Acc:ZDB-GENE-000509-1]		aryl hydrocarbon receptor nuclear translocator-like [Source:MGI Symbol;Acc:MGI:1096381]	
106561609	Cry2-Ch10	gene22448:106561609	106561609	OG1v0000304	no pair	Yes	3.6749493563089401E-3	2.5526838940704501E-3	>0.05	>0.05	-	-	>0.05	-	-	6.4713300000000004E-4	0.615043012	-	-	-	-	-	-	ENSDARG00000102403_Drer	ENSMUSG00000068742_Mmus	cryptochrome circadian regulator 2 [Source:ZFIN;Acc:ZDB-GENE-010426-6]		cryptochrome 2 (photolyase-like) [Source:MGI Symbol;Acc:MGI:1270859]	
106562106	Arntl1-Ch11	gene22983:106562106	106562106	OG1v0002849	Arntl1-Ch26	Yes	8.2573896296276404E-3	>0.05	3.9129113183734999E-5	>0.05	-	-	>0.05	-	-	0.54704200999999997	0.83210510699999995	0.96799999999999997	>0,9999	0.97889999999999999	0.96779999999999999	0.4249	0.54969999999999997	ENSDARG00000006791_Drer	ENSMUSG00000055116_Mmus	aryl hydrocarbon receptor nuclear translocator-like 1a [Source:ZFIN;Acc:ZDB-GENE-000509-1]		aryl hydrocarbon receptor nuclear translocator-like [Source:MGI Symbol;Acc:MGI:1096381]	
106562510	Cry2-Ch11	gene23363:106562510	106562510	OG1v0000304	no pair	No	-	-	-	-	-	-	-	-	-	1	0.41530885299999998	-	-	-	-	-	-	ENSDARG00000102403_Drer	ENSMUSG00000068742_Mmus	cryptochrome circadian regulator 2 [Source:ZFIN;Acc:ZDB-GENE-010426-6]		cryptochrome 2 (photolyase-like) [Source:MGI Symbol;Acc:MGI:1270859]	
106563389	Per1-Ch11	gene24233:106563389	106563389	OG1v0002483	Per1-Ch4	Yes	1.0862017835859999E-9	4.4088148079744703E-8	4.86119768420189E-4	4.2107869114003802E-4	>0.05	>0.05	>0.05	-	-	2.8799999999999999E-5	9.5718099999999998E-4	0.3458	0.98950000000000005	0.88890000000000002	0.99280000000000002	0.88009999999999999	0.76739999999999997	ENSDARG00000056885_Drer	ENSMUSG00000020893_Mmus	period circadian clock 1a [Source:ZFIN;Acc:ZDB-GENE-011220-1]		period circadian clock 1 [Source:MGI Symbol;Acc:MGI:1098283]	
106565112	Cry1-Ch12	gene26145:106565112	106565112	OG1v0000304	Cry1-Ch22	Yes	>0.05	-	-	>0.05	-	-	>0.05	-	-	7.6099999999999999E-14	2.3514399999999999E-12	0.93079999999999996	0.6159	1.1000000000000001E-3	0.36990000000000001	0.44790000000000002	0.61670000000000003	ENSDARG00000091131_Drer	ENSMUSG00000020038_Mmus	cryptochrome circadian regulator 3b [Source:ZFIN;Acc:ZDB-GENE-010426-5]		cryptochrome 1 (photolyase-like) [Source:MGI Symbol;Acc:MGI:1270841]	
106567770	Npas2-Ch13	gene29145:106567770	106567770	OG1v0000681	Npas2-Ch4	No	-	-	-	-	-	-	-	-	-	3.7375049E-2	1.8246268999999999E-2	-	-	-	-	-	-	ENSDARG00000016536_Drer	ENSMUSG00000026077_Mmus	neuronal PAS domain protein 2 [Source:ZFIN;Acc:ZDB-GENE-030408-3]		neuronal PAS domain protein 2 [Source:MGI Symbol;Acc:MGI:109232]	
106568206	Cry4-Ch13	gene29255:106568206	106568206	OG1v0015055	no pair	Yes	>0.05	-	-	>0.05	-	-	>0.05	-	-	0.152263179	5.4211401999999999E-2	-	-	-	-	-	-	ENSDARG00000019498_Drer	NA	cryptochrome circadian regulator 5 [Source:ZFIN;Acc:ZDB-GENE-010426-8]		NA	NA
106570004	Dbp-Ch14	gene31133:106570004	106570004	OG1v0001835	no pair	Yes	1.9303093080301301E-5	>0.05	3.5940316030258303E-2	>0.05	-	-	>0.05	-	-	0.244210601	0.98062074799999999	-	-	-	-	-	-	ENSDARG00000063014_Drer	NA	D site albumin promoter binding protein a [Source:ZFIN;Acc:ZDB-GENE-060503-802]		NA	NA
106570088	Ciart-Ch14	gene31017:106570088	106570088	OG1v0007602	no pair	Yes	1.8675438172184199E-7	3.0706160669396001E-4	4.86119768420189E-4	1.3684554396392301E-2	>0.05	>0.05	>0.05	-	-	9.2399030000000007E-3	0.82727752600000004	-	-	-	-	-	-	ENSDARG00000058094_Drer	ENSMUSG00000038550_Mmus	circadian associated repressor of transcription a [Source:ZFIN;Acc:ZDB-GENE-030131-7016]		circadian associated repressor of transcription [Source:MGI Symbol;Acc:MGI:2684975]	
106570286	Nr1d2-Ch14	gene31419:106570286	106570286	OG1v0007203	Nr1d2-Ch27	Yes	8.2573896296276404E-3	>0.05	>0.05	>0.05	-	-	>0.05	-	-	3.2920900000000003E-2	0.71364286499999996	0.2014	0.24790000000000001	0.73040000000000005	0.99429999999999996	0.67459999999999998	0.51700000000000002	ENSDARG00000009594_Drer	ENSMUSG00000021775_Mmus	nuclear receptor subfamily 1, group D, member 2b [Source:ZFIN;Acc:ZDB-GENE-990415-244]		nuclear receptor subfamily 1, group D, member 2 [Source:MGI Symbol;Acc:MGI:2449205]	
106573213	Arntl1-Ch16	gene34357:106573213	106573213	OG1v0002849	Arntl1-Ch10	Yes	>0.05	-	-	>0.05	-	-	>0.05	-	-	0.53447510499999995	0.32185162699999997	2.8999999999999998E-3	0.54730000000000001	0.82340000000000002	0.84230000000000005	0.503	0.66100000000000003	ENSDARG00000006791_Drer	ENSMUSG00000055116_Mmus	aryl hydrocarbon receptor nuclear translocator-like 1a [Source:ZFIN;Acc:ZDB-GENE-000509-1]		aryl hydrocarbon receptor nuclear translocator-like [Source:MGI Symbol;Acc:MGI:1096381]	
106573292	Cry1-Ch16	gene34424:106573292	106573292	OG1v0000304	Cry1-Ch10	Yes	2.0638012930013E-3	>0.05	>0.05	>0.05	-	-	>0.05	-	-	3.673716E-3	4.0139266999999999E-2	5.91E-2	2.1499999999999998E-2	0.99829999999999997	0.96009999999999995	0.87329999999999997	0.99019999999999997	ENSDARG00000011583_Drer	ENSMUSG00000020038_Mmus	cryptochrome circadian regulator 1b [Source:ZFIN;Acc:ZDB-GENE-010426-3]		cryptochrome 1 (photolyase-like) [Source:MGI Symbol;Acc:MGI:1270841]	
106573506	Rora-Ch16	gene34671:106573506	106573506	OG1v0003721	Rora-Ch10	Yes	>0.05	-	-	>0.05	-	-	4.8481790000000002E-3	>0.05	>0.05	3.7440939999999999E-2	3.0380438999999999E-2	0.1235	0.47949999999999998	0.7107	0.97409999999999997	0.39589999999999997	0.38650000000000001	ENSDARG00000031768_Drer	ENSMUSG00000032238_Mmus	RAR-related orphan receptor A, paralog a [Source:NCBI gene;Acc:564951]		RAR-related orphan receptor alpha [Source:MGI Symbol;Acc:MGI:104661]	
106575322	Rorc-Ch2	gene3491:106575322	106575322	OG1v0013005	Rorc-Ch5	Yes	Not Expressed	Not Expressed	Not Expressed	Not Expressed	Not Expressed	Not Expressed	Not Expressed	Not Expressed	Not Expressed	7.3772619999999999E-3	0.60267011199999998	-	-	-	-	-	-	ENSDARG00000087195_Drer	NA	RAR-related orphan receptor C [Source:ZFIN;Acc:ZDB-GENE-110411-42]		NA	NA
106580068	Rorb-Ch20	gene41116:106580068	106580068	OG1v0007372	Rorb-Ch24	Yes	>0.05	-	-	>0.05	-	-	Not Expressed	Not Expressed	Not Expressed	Not Expressed	Not Expressed	-	-	-	-	-	-	ENSDARG00000033498_Drer	ENSMUSG00000036192_Mmus	RAR-related orphan receptor B [Source:ZFIN;Acc:ZDB-GENE-061204-2]		RAR-related orphan receptor beta [Source:MGI Symbol;Acc:MGI:1343464]	
106581343	Per2-Ch20	gene42506:106581343	106581343	OG1v0003904	no pair	Yes	Not Expressed	Not Expressed	Not Expressed	Not Expressed	Not Expressed	Not Expressed	Not Expressed	Not Expressed	Not Expressed	1	Not Expressed	-	-	-	-	-	-	ENSDARG00000034503_Drer	ENSMUSG00000055866_Mmus	period circadian clock 2 [Source:ZFIN;Acc:ZDB-GENE-011220-2]		period circadian clock 2 [Source:MGI Symbol;Acc:MGI:1195265]	
106582110	Nr1d2-Ch2	gene4157:106582110	106582110	OG1v0010710	Nr1d2-Ch5	Yes	>0.05	-	-	>0.05	-	-	>0.05	-	-	1.0259099999999999E-4	1.81257E-12	0.38740000000000002	0.99829999999999997	0.99550000000000005	0.99960000000000004	0.99970000000000003	0.97660000000000002	ENSDARG00000003820_Drer	NA	nuclear receptor subfamily 1, group D, member 2a [Source:ZFIN;Acc:ZDB-GENE-040504-1]		NA	NA
106583133	Per3-Ch22	gene44235:106583133	106583133	OG1v0016141	no pair	Yes	4.4890733428517001E-5	4.86119768420189E-4	>0.05	>0.05	-	-	>0.05	-	-	8.9466399999999998E-4	0.87875878699999999	-	-	-	-	-	-	ENSDARG00000010519_Drer	ENSMUSG00000028957_Mmus	period circadian clock 3 [Source:ZFIN;Acc:ZDB-GENE-000804-1]		period circadian clock 3 [Source:MGI Symbol;Acc:MGI:1277134]	
106583488	Cry1-Ch22	gene44651:106583488	106583488	OG1v0000304	Cry1-Ch12	Yes	>0.05	-	-	2.7647293314617201E-3	>0.05	>0.05	>0.05	-	-	1.8407871999999999E-2	0.43681469699999997	0.93079999999999996	0.6159	1.1000000000000001E-3	0.36990000000000001	0.44790000000000002	0.61670000000000003	ENSDARG00000091131_Drer	ENSMUSG00000020038_Mmus	cryptochrome circadian regulator 3b [Source:ZFIN;Acc:ZDB-GENE-010426-5]		cryptochrome 1 (photolyase-like) [Source:MGI Symbol;Acc:MGI:1270841]	
106584123	Clock-Ch23	gene45441:106584123	106584123	OG1v0000681	Clock-Ch10	Yes	>0.05	-	-	>0.05	-	-	>0.05	1.9906947875304001E-2	-	1.1902919E-2	9.9477398999999994E-2	0.67869999999999997	0.54710000000000003	0.3785	0.72689999999999999	0.87570000000000003	0.87329999999999997	ENSDARG00000011703_Drer	ENSMUSG00000029238_Mmus	clock circadian regulator a [Source:ZFIN;Acc:ZDB-GENE-990630-14]		circadian locomotor output cycles kaput [Source:MGI Symbol;Acc:MGI:99698]	
106585703	Rorb-Ch24	gene46931:106585703	106585703	OG1v0007372	Rorb-Ch20	Yes	>0.05	-	-	Not Expressed	Not Expressed	Not Expressed	Not Expressed	Not Expressed	Not Expressed	Not Expressed	Not Expressed	-	-	-	-	-	-	ENSDARG00000033498_Drer	ENSMUSG00000036192_Mmus	RAR-related orphan receptor B [Source:ZFIN;Acc:ZDB-GENE-061204-2]		RAR-related orphan receptor beta [Source:MGI Symbol;Acc:MGI:1343464]	
106587199	Arntl1-Ch26	gene48533:106587199	106587199	OG1v0002849	Arntl1-Ch11	Yes	5.8924055608844698E-4	>0.05	>0.05	>0.05	-	-	>0.05	-	-	0.17236808300000001	0.69474809100000001	0.96799999999999997	>0,9999	0.97889999999999999	0.96779999999999999	0.4249	0.54969999999999997	ENSDARG00000006791_Drer	ENSMUSG00000055116_Mmus	aryl hydrocarbon receptor nuclear translocator-like 1a [Source:ZFIN;Acc:ZDB-GENE-000509-1]		aryl hydrocarbon receptor nuclear translocator-like [Source:MGI Symbol;Acc:MGI:1096381]	
106587781	Cry2-Ch26	gene49012:106587781	106587781	OG1v0000304	no pair	Yes	6.7111306157319306E-5	6.7966770041349905E-5	4.75563526692728E-2	>0.05	-	-	>0.05	-	-	1	0.43462032299999998	-	-	-	-	-	-	ENSDARG00000102403_Drer	ENSMUSG00000068742_Mmus	cryptochrome circadian regulator 2 [Source:ZFIN;Acc:ZDB-GENE-010426-6]		cryptochrome 2 (photolyase-like) [Source:MGI Symbol;Acc:MGI:1270859]	
106588010	Rora-Ch26-1	gene49233:106588010	106588010	OG1v0003721	no pair	Yes	>0.05	-	-	>0.05	-	-	>0.05	-	-	0.135699391	0.37978718299999997	-	-	-	-	-	-	ENSDARG00000031768_Drer	ENSMUSG00000032238_Mmus	RAR-related orphan receptor A, paralog a [Source:NCBI gene;Acc:564951]		RAR-related orphan receptor alpha [Source:MGI Symbol;Acc:MGI:104661]	
106588012	Rora-Ch26-2	gene49235:106588012	106588012	OG1v0003721	no pair	No	-	-	-	-	-	-	-	-	-	0.81771941800000003	0.85529719299999996	-	-	-	-	-	-	ENSDARG00000031768_Drer	ENSMUSG00000032238_Mmus	RAR-related orphan receptor A, paralog a [Source:NCBI gene;Acc:564951]		RAR-related orphan receptor alpha [Source:MGI Symbol;Acc:MGI:104661]	
106588186	Ciart-Ch27	gene49633:106588186	106588186	OG1v0007602	no pair	No	-	-	-	-	-	-	-	-	-	1.4574499999999999E-4	9.3090840000000005E-3	-	-	-	-	-	-	ENSDARG00000058094_Drer	ENSMUSG00000038550_Mmus	circadian associated repressor of transcription a [Source:ZFIN;Acc:ZDB-GENE-030131-7016]		circadian associated repressor of transcription [Source:MGI Symbol;Acc:MGI:2684975]	
106588446	Dbp-Ch27	gene49801:106588446	106588446	OG1v0001835	no pair	No	-	-	-	-	-	-	-	-	-	4.1512140000000003E-3	9.7710144999999998E-2	-	-	-	-	-	-	ENSDARG00000063014_Drer	NA	D site albumin promoter binding protein a [Source:ZFIN;Acc:ZDB-GENE-060503-802]		NA	NA
106588668	Nr1d2-Ch27	gene50244:106588668	106588668	OG1v0007203	Nr1d2-Ch14	Yes	1.8675438172184199E-7	2.18920901694011E-5	3.0706160669396001E-4	>0.05	-	-	>0.05	-	-	1.3658649E-2	5.9229419999999996E-3	0.2014	0.24790000000000001	0.73040000000000005	0.99429999999999996	0.67459999999999998	0.51700000000000002	ENSDARG00000009594_Drer	ENSMUSG00000021775_Mmus	nuclear receptor subfamily 1, group D, member 2b [Source:ZFIN;Acc:ZDB-GENE-990415-244]		nuclear receptor subfamily 1, group D, member 2 [Source:MGI Symbol;Acc:MGI:2449205]	
106589531	Tef-Ch28	gene51060:106589531	106589531	OG1v0001103	Tef-Ch1	Yes	>0.05	-	-	>0.05	-	-	>0.05	-	-	2.540137E-3	9.2566850000000006E-3	0.9	0.94689999999999996	0.93189999999999995	0.98480000000000001	0.96209999999999996	0.4239	ENSDARG00000039117_Drer	ENSMUSG00000022389_Mmus	TEF transcription factor, PAR bZIP family member a [Source:ZFIN;Acc:ZDB-GENE-990415-264]		thyrotroph embryonic factor [Source:MGI Symbol;Acc:MGI:98663]	
106589542	CKIe-Ch28	gene51072:106589542	106589542	OG1v0000277	CKIe-Ch1	No	-	-	-	-	-	-	-	-	-	1	0.11931760199999999	-	-	-	-	-	-	ENSDARG00000045150_Drer	ENSMUSG00000022433_Mmus	casein kinase 1, epsilon [Source:ZFIN;Acc:ZDB-GENE-030131-7873]		casein kinase 1, epsilon [Source:MGI Symbol;Acc:MGI:1351660]	
106589616	CKId-Ch28	gene51168:106589616	106589616	OG1v0000277	CKId-Ch1	Yes	1.7445848806434999E-2	>0.05	>0.05	>0.05	-	-	>0.05	-	-	2.4405999999999999E-4	1.8462134000000002E-2	-	-	-	-	-	-	ENSDARG00000006125_Drer	ENSMUSG00000025162_Mmus	casein kinase 1, delta b [Source:NCBI gene;Acc:406533]		casein kinase 1, delta [Source:MGI Symbol;Acc:MGI:1355272]	
106589861	Hlf-Ch28	gene51416:106589861	106589861	OG1v0003243	Hlf-Ch1	Yes	>0.05	-	-	2.0870275006570999E-4	>0.05	>0.05	>0.05	-	-	0.31594049499999999	5.7582433000000002E-2	0.49890000000000001	0.1048	0.64959999999999996	0.30509999999999998	3.7600000000000001E-2	0.19189999999999999	ENSDARG00000074752_Drer	ENSMUSG00000003949_Mmus	HLF transcription factor, PAR bZIP family member a [Source:ZFIN;Acc:ZDB-GENE-061013-159]		hepatic leukemia factor [Source:MGI Symbol;Acc:MGI:96108]	
106594386	Clock-106594385	gene71418:106594386	106594386	OG1v0000681	no pair	No	-	-	-	-	-	-	-	-	-	0.22105524800000001	0.88509663800000005	-	-	-	-	-	-	ENSDARG00000003631_Drer	ENSMUSG00000029238_Mmus	clock circadian regulator b [Source:ZFIN;Acc:ZDB-GENE-030408-2]		circadian locomotor output cycles kaput [Source:MGI Symbol;Acc:MGI:99698]	
106595407	CKId-106595407	gene63411:106595407	106595407	OG1v0000277	no pair	No	-	-	-	-	-	-	-	-	-	0.20216284100000001	0.84544637899999997	-	-	-	-	-	-	ENSDARG00000008370_Drer	ENSMUSG00000025162_Mmus	casein kinase 1, delta a [Source:NCBI gene;Acc:322106]		casein kinase 1, delta [Source:MGI Symbol;Acc:MGI:1355272]	
106596082	CKId-106596082	gene71477:106596082	106596082	OG1v0000277	no pair	No	-	-	-	-	-	-	-	-	-	5.0500787999999998E-2	0.99956771300000002	-	-	-	-	-	-	ENSDARG00000008370_Drer	ENSMUSG00000025162_Mmus	casein kinase 1, delta a [Source:NCBI gene;Acc:322106]		casein kinase 1, delta [Source:MGI Symbol;Acc:MGI:1355272]	
106599551	Per2-Ch3	gene6306:106599551	106599551	OG1v0003904	Per2-Ch14	Yes	2.7832346394191999E-2	>0.05	>0.05	>0.05	-	-	>0.05	-	-	6.6400000000000001E-5	0.47271015799999999	5.57E-2	0.1338	0.6724	0.98229999999999995	0.42670000000000002	0.32929999999999998	ENSDARG00000034503_Drer	ENSMUSG00000055866_Mmus	period circadian clock 2 [Source:ZFIN;Acc:ZDB-GENE-011220-2]		period circadian clock 2 [Source:MGI Symbol;Acc:MGI:1195265]	
106600825	Nr1d1-Ch3	gene7293:106600825	106600825	OG1v0011513	Nr1d1-Ch6	Yes	Not Expressed	Not Expressed	Not Expressed	Not Expressed	Not Expressed	Not Expressed	Not Expressed	Not Expressed	Not Expressed	8.0599999999999994E-8	5.6067299999999996E-6	-	-	-	-	-	-	ENSDARG00000033160_Drer	ENSMUSG00000020889_Mmus	nuclear receptor subfamily 1, group d, member 1 [Source:ZFIN;Acc:ZDB-GENE-050105-1]		nuclear receptor subfamily 1, group D, member 1 [Source:MGI Symbol;Acc:MGI:2444210]	
106601228	CKIe-Ch3	gene7593:106601228	106601228	OG1v0000277	CKIe-Ch6	Yes	>0.05	-	-	>0.05	-	-	>0.05	-	-	4.1535638999999999E-2	0.67421781000000003	0.96799999999999997	>0,9999	0.99929999999999997	>0,9999	0.83779999999999999	0.97160000000000002	ENSDARG00000045150_Drer	ENSMUSG00000022433_Mmus	casein kinase 1, epsilon [Source:ZFIN;Acc:ZDB-GENE-030131-7873]		casein kinase 1, epsilon [Source:MGI Symbol;Acc:MGI:1351660]	
106601241	Tef-Ch3	gene7609:106601241	106601241	OG1v0001103	Tef-Ch6	Yes	2.97968762283205E-4	>0.05	>0.05	1.0665365481429699E-2	>0.05	>0.05	>0.05	-	-	4.1700000000000003E-8	1.9954000000000002E-11	0.99890000000000001	>0,9999	0.82909999999999995	0.999	0.99990000000000001	0.99980000000000002	ENSDARG00000098103_Drer	ENSMUSG00000022389_Mmus	TEF transcription factor, PAR bZIP family member b [Source:ZFIN;Acc:ZDB-GENE-050522-224]		thyrotroph embryonic factor [Source:MGI Symbol;Acc:MGI:98663]	
106603198	Per1-Ch4	gene9739:106603198	106603198	OG1v0002483	Per1-Ch11	Yes	3.4031240701408802E-7	2.18920901694011E-5	4.86119768420189E-4	3.6749493563089401E-3	>0.05	>0.05	4.8481790000000002E-3	>0.05	7.5471703104318597E-3	2.1346120000000001E-3	7.5774567000000001E-2	0.3458	0.98950000000000005	0.88890000000000002	0.99280000000000002	0.88009999999999999	0.76739999999999997	ENSDARG00000056885_Drer	ENSMUSG00000020893_Mmus	period circadian clock 1a [Source:ZFIN;Acc:ZDB-GENE-011220-1]		period circadian clock 1 [Source:MGI Symbol;Acc:MGI:1098283]	
106603298	Npas2-Ch4	gene9827:106603298	106603298	OG1v0000681	Npas2-Ch13	No	-	-	-	-	-	-	-	-	-	0.57832405200000003	0.79544296699999995	-	-	-	-	-	-	ENSDARG00000016536_Drer	ENSMUSG00000026077_Mmus	neuronal PAS domain protein 2 [Source:ZFIN;Acc:ZDB-GENE-030408-3]		neuronal PAS domain protein 2 [Source:MGI Symbol;Acc:MGI:109232]	
106605773	Dbp-Ch5-2	gene12424:106605773	106605773	OG1v0001835	no pair	No	-	-	-	-	-	-	-	-	-	5.7776599999999996E-3	4.0259099999999998E-7	-	-	-	-	-	-	ENSDARG00000057652_Drer	NA	D site albumin promoter binding protein b [Source:ZFIN;Acc:ZDB-GENE-100922-6]		NA	NA
106605774	Dbp-Ch5-1	gene12423:106605774	106605774	OG1v0001835	no pair	Yes	2.97968762283205E-4	7.5502877433024503E-4	1.15194459193934E-3	>0.05	-	-	>0.05	-	-	0.40059022900000002	5.7633491000000002E-2	-	-	-	-	-	-	ENSDARG00000057652_Drer	NA	D site albumin promoter binding protein b [Source:ZFIN;Acc:ZDB-GENE-100922-6]		NA	NA
106605810	Dbp-Ch5-3	gene12460:106605810	106605810	OG1v0001835	no pair	No	-	-	-	-	-	-	-	-	-	1.5508329999999999E-3	1.52405E-6	-	-	-	-	-	-	ENSDARG00000057652_Drer	NA	D site albumin promoter binding protein b [Source:ZFIN;Acc:ZDB-GENE-100922-6]		NA	NA
106605936	Rorc-Ch5	gene12583:106605936	106605936	OG1v0013005	Rorc-Ch2	Yes	>0.05	-	-	Not Expressed	Not Expressed	Not Expressed	4.3364861999999997E-2	>0.05	>0.05	1	0.65110076100000003	-	-	-	-	-	-	ENSDARG00000087195_Drer	NA	RAR-related orphan receptor C [Source:ZFIN;Acc:ZDB-GENE-110411-42]		NA	NA
106606950	Hlf-Ch6	gene13721:106606950	106606950	OG1v0003243	Hlf-Ch3	No	-	-	-	-	-	-	-	-	-	1.57E-6	5.0422219999999998E-3	-	-	-	-	-	-	ENSDARG00000074752_Drer	ENSMUSG00000003949_Mmus	HLF transcription factor, PAR bZIP family member a [Source:ZFIN;Acc:ZDB-GENE-061013-159]		hepatic leukemia factor [Source:MGI Symbol;Acc:MGI:96108]	
106607162	Tef-Ch6	gene13950:106607162	106607162	OG1v0001103	Tef-Ch3	Yes	2.0870275006570999E-4	>0.05	>0.05	1.0665365481429699E-2	>0.05	>0.05	>0.05	-	-	3.3100000000000001E-6	4.6684999999999999E-4	0.99890000000000001	>0,9999	0.82909999999999995	0.999	0.99990000000000001	0.99980000000000002	ENSDARG00000098103_Drer	ENSMUSG00000022389_Mmus	TEF transcription factor, PAR bZIP family member b [Source:ZFIN;Acc:ZDB-GENE-050522-224]		thyrotroph embryonic factor [Source:MGI Symbol;Acc:MGI:98663]	
106607496	Nr1d1-Ch6	gene14213:106607496	106607496	OG1v0011513	Nr1d1-Ch3	Yes	1.44621770532003E-4	2.5526838940704501E-3	7.5471703104318597E-3	8.2573896296276404E-3	>0.05	1.25645044876925E-2	>0.05	-	-	1.3499999999999999E-5	4.1233100000000001E-7	-	-	-	-	-	-	ENSDARG00000033160_Drer	ENSMUSG00000020889_Mmus	nuclear receptor subfamily 1, group d, member 1 [Source:ZFIN;Acc:ZDB-GENE-050105-1]		nuclear receptor subfamily 1, group D, member 1 [Source:MGI Symbol;Acc:MGI:2444210]	
106608520	Per1-Ch6	gene15405:106608520	106608520	OG1v0002483	no pair	Yes	1.05052708860679E-6	7.5502877433024503E-4	1.9906947875304001E-2	>0.05	-	-	>0.05	-	-	5.1799999999999999E-5	1.1607081999999999E-2	-	-	-	-	-	-	ENSDARG00000012499_Drer	ENSMUSG00000020893_Mmus	period circadian clock 1b [Source:ZFIN;Acc:ZDB-GENE-040419-1]		period circadian clock 1 [Source:MGI Symbol;Acc:MGI:1098283]	
106609470	CKIe-Ch1	gene1479:106609470	106609470	OG1v0000277	CKIe-Ch28	Yes	>0.05	-	-	>0.05	-	-	Not Expressed	Not Expressed	Not Expressed	1	Not Expressed	-	-	-	-	-	-	ENSDARG00000045150_Drer	ENSMUSG00000022433_Mmus	casein kinase 1, epsilon [Source:ZFIN;Acc:ZDB-GENE-030131-7873]		casein kinase 1, epsilon [Source:MGI Symbol;Acc:MGI:1351660]	
106610228	CKId-Ch1	gene1569:106610228	106610228	OG1v0000277	CKId-Ch28	No	-	-	-	-	-	-	-	-	-	2.2606670000000001E-3	0.97366734300000002	-	-	-	-	-	-	ENSDARG00000006125_Drer	ENSMUSG00000025162_Mmus	casein kinase 1, delta b [Source:NCBI gene;Acc:406533]		casein kinase 1, delta [Source:MGI Symbol;Acc:MGI:1355272]	
106612128	Hlf-Ch1	gene1803:106612128	106612128	OG1v0003243	Hlf-Ch28	Yes	>0.05	-	-	>0.05	-	-	>0.05	-	-	0.263137022	0.91346792099999996	0.49890000000000001	0.1048	0.64959999999999996	0.30509999999999998	3.7600000000000001E-2	0.19189999999999999	ENSDARG00000074752_Drer	ENSMUSG00000003949_Mmus	HLF transcription factor, PAR bZIP family member a [Source:ZFIN;Acc:ZDB-GENE-061013-159]		hepatic leukemia factor [Source:MGI Symbol;Acc:MGI:96108]	
